grid solution 
0.000000e+00 0.000000e+00 
5.000000e-01 2.221015e-02 
1.000000e+00 6.305462e-02 
1.500000e+00 1.496079e-01 
2.000000e+00 3.239796e-01 
2.500000e+00 6.432843e-01 
3.000000e+00 1.165083e+00 
3.500000e+00 1.913062e+00 
4.000000e+00 2.831880e+00 
4.500000e+00 3.761259e+00 
5.000000e+00 4.466230e+00 
5.500000e+00 4.730654e+00 
6.000000e+00 4.466222e+00 
6.500000e+00 3.761227e+00 
7.000000e+00 2.831771e+00 
7.500000e+00 1.912706e+00 
8.000000e+00 1.163968e+00 
8.500000e+00 6.399510e-01 
9.000000e+00 3.145359e-01 
9.500000e+00 1.243907e-01 
1.000000e+01 0.000000e+00 
