grid solution 
0.000000e+00 0.000000e+00 
5.000000e-01 3.974673e-02 
1.000000e+00 1.039893e-01 
1.500000e+00 2.234812e-01 
2.000000e+00 4.382021e-01 
2.500000e+00 7.928410e-01 
3.000000e+00 1.320994e+00 
3.500000e+00 2.019038e+00 
4.000000e+00 2.820350e+00 
4.500000e+00 3.589372e+00 
5.000000e+00 4.152126e+00 
5.500000e+00 4.359387e+00 
6.000000e+00 4.152093e+00 
6.500000e+00 3.589257e+00 
7.000000e+00 2.819995e+00 
7.500000e+00 2.017999e+00 
8.000000e+00 1.318086e+00 
8.500000e+00 7.850939e-01 
9.000000e+00 4.186448e-01 
9.500000e+00 1.769207e-01 
1.000000e+01 0.000000e+00 
