grid solution 
0.000000e+00 0.000000e+00 
5.000000e-01 1.174866e-04 
1.000000e+00 6.258918e-04 
1.500000e+00 3.109589e-03 
2.000000e+00 1.461721e-02 
2.500000e+00 6.326576e-02 
3.000000e+00 2.423741e-01 
3.500000e+00 7.852345e-01 
4.000000e+00 2.058921e+00 
4.500000e+00 4.212479e+00 
5.000000e+00 6.545679e+00 
5.500000e+00 7.596163e+00 
6.000000e+00 6.545679e+00 
6.500000e+00 4.212479e+00 
7.000000e+00 2.058921e+00 
7.500000e+00 7.852344e-01 
8.000000e+00 2.423733e-01 
8.500000e+00 6.326148e-02 
9.000000e+00 1.459417e-02 
9.500000e+00 2.987960e-03 
1.000000e+01 0.000000e+00 
