grid solution 
0.000000e+00 0.000000e+00 
5.000000e-01 5.788149e-03 
1.000000e+00 1.975740e-02 
1.500000e+00 5.819757e-02 
2.000000e+00 1.565766e-01 
2.500000e+00 3.821923e-01 
3.000000e+00 8.362008e-01 
3.500000e+00 1.619814e+00 
4.000000e+00 2.746457e+00 
4.500000e+00 4.035954e+00 
5.000000e+00 5.101086e+00 
5.500000e+00 5.518361e+00 
6.000000e+00 5.101086e+00 
6.500000e+00 4.035952e+00 
7.000000e+00 2.746448e+00 
7.500000e+00 1.619777e+00 
8.000000e+00 8.360578e-01 
8.500000e+00 3.816623e-01 
9.000000e+00 1.547014e-01 
9.500000e+00 5.191434e-02 
1.000000e+01 0.000000e+00 
